## Interface: 90105
## Title: Lib: GetFrame
## Notes: Get unit frame for a unit
## Author: Buds
## X-Category: Library
## X-License: BSD
## Version: 1.5.10
## DefaultState: Enabled
## LoadOnDemand: 0

LibGetFrame-1.0.xml
