## Interface: 90205
## Interface-Classic: 11402
## Interface-BCC: 20504
## Title: WeakAuras Archive
## Author: The WeakAuras Team
## Version: @project-version@
## LoadOnDemand: 1
## SavedVariables: WeakAurasArchive
## Dependencies: WeakAuras

WeakAurasArchive.lua
